EESchema Schematic File Version 4
EELAYER 30 0
EELAYER END
$Descr A4 11693 8268
encoding utf-8
Sheet 1 1
Title ""
Date ""
Rev ""
Comp ""
Comment1 ""
Comment2 ""
Comment3 ""
Comment4 ""
$EndDescr
$Comp
L SWI:SWI_COB SWI1
U 1 1 5DB9E702
P 3200 3050
F 0 "SWI1" H 4350 2550 60  0000 L CNN
F 1 "SWI_COB" H 4300 2400 60  0000 L CNN
F 2 "SWI:SWI_COB" H 3350 3100 60  0001 R CNN
F 3 "" H 3350 2900 60  0001 R CNN
F 4 "C4M2019SWI" H 3350 3000 60  0001 R CNN "manf#"
	1    3200 3050
	1    0    0    -1  
$EndComp
$Comp
L SWI:SWI_DIL P1
U 1 1 5DBA1B70
P 1800 6300
F 0 "P1" V 1917 5150 60  0000 C CNN
F 1 "SWI_DIL" V 1811 5150 60  0000 C CNN
F 2 "SWI:SWI_DIL" H 2000 6350 60  0001 L CNN
F 3 "" H 2000 6150 60  0001 L CNN
	1    1800 6300
	0    -1   -1   0   
$EndComp
$Comp
L SWI:SWI_DIL P1
U 2 1 5DBA695C
P 7000 600
F 0 "P1" V 7010 -550 60  0000 C CNN
F 1 "SWI_DIL" V 7116 -550 60  0000 C CNN
F 2 "SWI:SWI_DIL" H 7200 650 60  0001 L CNN
F 3 "" H 7200 450 60  0001 L CNN
	2    7000 600 
	0    1    1    0   
$EndComp
Wire Wire Line
	3200 3050 1800 3050
Wire Wire Line
	1800 3050 1800 5500
Wire Wire Line
	1900 5500 1900 3150
Wire Wire Line
	1900 3150 3200 3150
Wire Wire Line
	3200 3250 2000 3250
Wire Wire Line
	2000 3250 2000 5500
Wire Wire Line
	2100 3350 3200 3350
Wire Wire Line
	2100 3350 2100 5500
Wire Wire Line
	3200 3450 2200 3450
Wire Wire Line
	2200 3450 2200 5500
Wire Wire Line
	2300 3550 3200 3550
Wire Wire Line
	3200 3650 2400 3650
Wire Wire Line
	2400 3650 2400 5500
Wire Wire Line
	2300 3550 2300 5500
Wire Wire Line
	2500 5500 2500 3750
Wire Wire Line
	2500 3750 3200 3750
Wire Wire Line
	2600 3850 2600 5500
Wire Wire Line
	2600 3850 3200 3850
Wire Wire Line
	2700 5500 2700 3950
Wire Wire Line
	2700 3950 3200 3950
Wire Wire Line
	3200 4050 2800 4050
Wire Wire Line
	2800 4050 2800 5500
Wire Wire Line
	2900 5500 2900 4150
Wire Wire Line
	2900 4150 3200 4150
Wire Wire Line
	3900 4850 3000 4850
Wire Wire Line
	3000 4850 3000 5500
Wire Wire Line
	3100 4900 4000 4900
Wire Wire Line
	4000 4900 4000 4850
Wire Wire Line
	3100 4900 3100 5500
Wire Wire Line
	3200 4950 4100 4950
Wire Wire Line
	4100 4950 4100 4850
Wire Wire Line
	4200 4850 4200 5000
Wire Wire Line
	4200 5000 3300 5000
Wire Wire Line
	3300 5000 3300 5500
Wire Wire Line
	3200 4950 3200 5500
Wire Wire Line
	3400 5500 3400 5050
Wire Wire Line
	3400 5050 4300 5050
Wire Wire Line
	4300 5050 4300 4850
Wire Wire Line
	4400 4850 4400 5100
Wire Wire Line
	4400 5100 3500 5100
Wire Wire Line
	3500 5100 3500 5500
Wire Wire Line
	3600 5500 3600 5150
Wire Wire Line
	3600 5150 4500 5150
Wire Wire Line
	4500 5150 4500 4850
Wire Wire Line
	3700 5500 3700 5200
Wire Wire Line
	3700 5200 4600 5200
Wire Wire Line
	4600 5200 4600 4850
Wire Wire Line
	4700 4850 4700 5250
Wire Wire Line
	4700 5250 3800 5250
Wire Wire Line
	3800 5250 3800 5500
Wire Wire Line
	3900 5500 3900 5300
Wire Wire Line
	3900 5300 4800 5300
Wire Wire Line
	4800 5300 4800 4850
Wire Wire Line
	4900 4850 4900 5350
Wire Wire Line
	4900 5350 4000 5350
Wire Wire Line
	4000 5350 4000 5500
Wire Wire Line
	4100 5500 4100 5400
Wire Wire Line
	4100 5400 5000 5400
Wire Wire Line
	5000 5400 5000 4850
Wire Wire Line
	5900 3050 5900 1400
Wire Wire Line
	5700 3050 5900 3050
Wire Wire Line
	6000 1400 6000 3150
Wire Wire Line
	6000 3150 5700 3150
Wire Wire Line
	6100 1400 6100 3250
Wire Wire Line
	6100 3250 5700 3250
Wire Wire Line
	6200 1400 6200 3350
Wire Wire Line
	6200 3350 5700 3350
Wire Wire Line
	6300 1400 6300 3450
Wire Wire Line
	6300 3450 5700 3450
Wire Wire Line
	6400 1400 6400 3550
Wire Wire Line
	6400 3550 5700 3550
Wire Wire Line
	6500 1400 6500 3650
Wire Wire Line
	6500 3650 5700 3650
Wire Wire Line
	6600 1400 6600 3750
Wire Wire Line
	6600 3750 5700 3750
Wire Wire Line
	6700 1400 6700 3850
Wire Wire Line
	6700 3850 5700 3850
Wire Wire Line
	5700 3950 6800 3950
Wire Wire Line
	6800 3950 6800 1400
Wire Wire Line
	6900 1400 6900 4050
Wire Wire Line
	6900 4050 5700 4050
Wire Wire Line
	7000 1400 7000 4150
Wire Wire Line
	7000 4150 5700 4150
Wire Wire Line
	5800 2350 5800 1400
Wire Wire Line
	5700 1400 5700 2300
Wire Wire Line
	5700 2300 4900 2300
Wire Wire Line
	4900 2300 4900 2350
Wire Wire Line
	5000 2350 5800 2350
Wire Wire Line
	4800 2350 4800 2250
Wire Wire Line
	4800 2250 5600 2250
Wire Wire Line
	5600 2250 5600 1400
Wire Wire Line
	5500 2200 4700 2200
Wire Wire Line
	4700 2200 4700 2350
Wire Wire Line
	5500 1400 5500 2200
Wire Wire Line
	4600 2350 4600 2150
Wire Wire Line
	4600 2150 5400 2150
Wire Wire Line
	5400 2150 5400 1400
Wire Wire Line
	5300 1400 5300 2100
Wire Wire Line
	4500 2100 4500 2350
Wire Wire Line
	5300 2100 4500 2100
Wire Wire Line
	4400 2350 4400 2050
Wire Wire Line
	4400 2050 5200 2050
Wire Wire Line
	5200 2050 5200 1400
Wire Wire Line
	5100 1400 5100 2000
Wire Wire Line
	5100 2000 4300 2000
Wire Wire Line
	4300 2000 4300 2350
Wire Wire Line
	4200 2350 4200 1950
Wire Wire Line
	4200 1950 5000 1950
Wire Wire Line
	5000 1950 5000 1400
Wire Wire Line
	4900 1400 4900 1900
Wire Wire Line
	4900 1900 4100 1900
Wire Wire Line
	4100 1900 4100 2350
Wire Wire Line
	4000 2350 4000 1850
Wire Wire Line
	4000 1850 4800 1850
Wire Wire Line
	4800 1850 4800 1400
Wire Wire Line
	4700 1400 4700 1800
Wire Wire Line
	4700 1800 3900 1800
Wire Wire Line
	3900 1800 3900 2350
$EndSCHEMATC
