
BGNSTR __date__ __date__
STRNAME ioring
SREF 
SNAME PAD80L
STRANS 0 
ANGLE 90 
XY 2727000: 2060000
PROPATTR 1 
PROPVALUE PAD_PIN28
ENDEL 
SREF 
SNAME PAD80L
STRANS 0 
ANGLE 180 
XY 2140000: 2727000
PROPATTR 1 
PROPVALUE PAD_PIN33
ENDEL 
SREF 
SNAME PDDWUWSW0204DGZ
STRANS 0 
ANGLE 90 
XY 2727000: 2060000
PROPATTR 1 
PROPVALUE IO_IO16
ENDEL 
SREF 
SNAME PDDWUWSW0204DGZ
STRANS 0 
ANGLE 180 
XY 2140000: 2727000
PROPATTR 1 
PROPVALUE IO_IO21
ENDEL 
SREF 
SNAME PAD80L
STRANS 0 
ANGLE 180 
XY 2340000: 2727000
PROPATTR 1 
PROPVALUE PAD_PIN32
ENDEL 
SREF 
SNAME PAD80L
STRANS 0 
ANGLE 90 
XY 2727000: 2260000
PROPATTR 1 
PROPVALUE PAD_PIN29
ENDEL 
SREF 
SNAME PAD80L
STRANS 0 
ANGLE 90 
XY 2727000: 2460000
PROPATTR 1 
PROPVALUE PAD_PIN30
ENDEL 
SREF 
SNAME PDDWUWSW0204DGZ
STRANS 0 
ANGLE 90 
XY 2727000: 2260000
PROPATTR 1 
PROPVALUE IO_IO17
ENDEL 
SREF 
SNAME PDDWUWSW0812DGZ
STRANS 0 
ANGLE 90 
XY 2727000: 2460000
PROPATTR 1 
PROPVALUE IO_IO18
ENDEL 
SREF 
SNAME PDDWUWSW0204DGZ
STRANS 0 
ANGLE 180 
XY 2540000: 2727000
PROPATTR 1 
PROPVALUE IO_IO19
ENDEL 
SREF 
SNAME PDDWUWSW0812DGZ
STRANS 0 
ANGLE 180 
XY 2340000: 2727000
PROPATTR 1 
PROPVALUE IO_IO20
ENDEL 
SREF 
SNAME PAD80L
STRANS 0 
ANGLE 180 
XY 2540000: 2727000
PROPATTR 1 
PROPVALUE PAD_PIN31
ENDEL 
SREF 
SNAME PCORNER
STRANS 0 
ANGLE 180 
XY 2727000: 2727000
PROPATTR 1 
PROPVALUE CORNER3
ENDEL 
SREF 
SNAME PFILLER20
STRANS 0 
ANGLE 90 
XY 2727000: 2140000
PROPATTR 1 
PROPVALUE FILLER145
ENDEL 
SREF 
SNAME PFILLER20
STRANS 0 
ANGLE 90 
XY 2727000: 2160000
PROPATTR 1 
PROPVALUE FILLER146
ENDEL 
SREF 
SNAME PFILLER20
STRANS 0 
ANGLE 90 
XY 2727000: 2180000
PROPATTR 1 
PROPVALUE FILLER147
ENDEL 
SREF 
SNAME PFILLER20
STRANS 0 
ANGLE 90 
XY 2727000: 2200000
PROPATTR 1 
PROPVALUE FILLER148
ENDEL 
SREF 
SNAME PFILLER20
STRANS 0 
ANGLE 90 
XY 2727000: 2220000
PROPATTR 1 
PROPVALUE FILLER149
ENDEL 
SREF 
SNAME PFILLER20
STRANS 0 
ANGLE 90 
XY 2727000: 2240000
PROPATTR 1 
PROPVALUE FILLER150
ENDEL 
SREF 
SNAME PFILLER20
STRANS 0 
ANGLE 90 
XY 2727000: 2340000
PROPATTR 1 
PROPVALUE FILLER151
ENDEL 
SREF 
SNAME PFILLER20
STRANS 0 
ANGLE 90 
XY 2727000: 2360000
PROPATTR 1 
PROPVALUE FILLER152
ENDEL 
SREF 
SNAME PFILLER20
STRANS 0 
ANGLE 90 
XY 2727000: 2380000
PROPATTR 1 
PROPVALUE FILLER153
ENDEL 
SREF 
SNAME PFILLER20
STRANS 0 
ANGLE 90 
XY 2727000: 2400000
PROPATTR 1 
PROPVALUE FILLER154
ENDEL 
SREF 
SNAME PFILLER20
STRANS 0 
ANGLE 90 
XY 2727000: 2420000
PROPATTR 1 
PROPVALUE FILLER155
ENDEL 
SREF 
SNAME PFILLER20
STRANS 0 
ANGLE 90 
XY 2727000: 2440000
PROPATTR 1 
PROPVALUE FILLER156
ENDEL 
SREF 
SNAME PFILLER10
STRANS 0 
ANGLE 90 
XY 2727000: 2540000
PROPATTR 1 
PROPVALUE FILLER159
ENDEL 
SREF 
SNAME PFILLER20
STRANS 0 
ANGLE 90 
XY 2727000: 2550000
PROPATTR 1 
PROPVALUE FILLER160
ENDEL 
SREF 
SNAME PFILLER20
STRANS 0 
ANGLE 90 
XY 2727000: 2570000
PROPATTR 1 
PROPVALUE FILLER161
ENDEL 
SREF 
SNAME PFILLER5
STRANS 0 
ANGLE 90 
XY 2727000: 2590000
PROPATTR 1 
PROPVALUE FILLER162
ENDEL 
SREF 
SNAME PFILLER1
STRANS 0 
ANGLE 90 
XY 2727000: 2595000
PROPATTR 1 
PROPVALUE FILLER163
ENDEL 
SREF 
SNAME PFILLER1
STRANS 0 
ANGLE 90 
XY 2727000: 2596000
PROPATTR 1 
PROPVALUE FILLER164
ENDEL 
SREF 
SNAME PFILLER20
STRANS 0 
ANGLE 180 
XY 2160000: 2727000
PROPATTR 1 
PROPVALUE FILLER227
ENDEL 
SREF 
SNAME PFILLER20
STRANS 0 
ANGLE 180 
XY 2180000: 2727000
PROPATTR 1 
PROPVALUE FILLER228
ENDEL 
SREF 
SNAME PFILLER20
STRANS 0 
ANGLE 180 
XY 2200000: 2727000
PROPATTR 1 
PROPVALUE FILLER229
ENDEL 
SREF 
SNAME PFILLER20
STRANS 0 
ANGLE 180 
XY 2220000: 2727000
PROPATTR 1 
PROPVALUE FILLER230
ENDEL 
SREF 
SNAME PFILLER20
STRANS 0 
ANGLE 180 
XY 2240000: 2727000
PROPATTR 1 
PROPVALUE FILLER231
ENDEL 
SREF 
SNAME PFILLER20
STRANS 0 
ANGLE 180 
XY 2260000: 2727000
PROPATTR 1 
PROPVALUE FILLER232
ENDEL 
SREF 
SNAME PFILLER20
STRANS 0 
ANGLE 180 
XY 2360000: 2727000
PROPATTR 1 
PROPVALUE FILLER233
ENDEL 
SREF 
SNAME PFILLER20
STRANS 0 
ANGLE 180 
XY 2380000: 2727000
PROPATTR 1 
PROPVALUE FILLER234
ENDEL 
SREF 
SNAME PFILLER20
STRANS 0 
ANGLE 180 
XY 2400000: 2727000
PROPATTR 1 
PROPVALUE FILLER235
ENDEL 
SREF 
SNAME PFILLER20
STRANS 0 
ANGLE 180 
XY 2420000: 2727000
PROPATTR 1 
PROPVALUE FILLER236
ENDEL 
SREF 
SNAME PFILLER20
STRANS 0 
ANGLE 180 
XY 2440000: 2727000
PROPATTR 1 
PROPVALUE FILLER237
ENDEL 
SREF 
SNAME PFILLER20
STRANS 0 
ANGLE 180 
XY 2460000: 2727000
PROPATTR 1 
PROPVALUE FILLER238
ENDEL 
SREF 
SNAME PFILLER10
STRANS 0 
ANGLE 180 
XY 2550000: 2727000
PROPATTR 1 
PROPVALUE FILLER241
ENDEL 
SREF 
SNAME PFILLER20
STRANS 0 
ANGLE 180 
XY 2570000: 2727000
PROPATTR 1 
PROPVALUE FILLER242
ENDEL 
SREF 
SNAME PFILLER20
STRANS 0 
ANGLE 180 
XY 2590000: 2727000
PROPATTR 1 
PROPVALUE FILLER243
ENDEL 
SREF 
SNAME PFILLER5
STRANS 0 
ANGLE 180 
XY 2595000: 2727000
PROPATTR 1 
PROPVALUE FILLER244
ENDEL 
SREF 
SNAME PFILLER1
STRANS 0 
ANGLE 180 
XY 2596000: 2727000
PROPATTR 1 
PROPVALUE FILLER245
ENDEL 
SREF 
SNAME PFILLER1
STRANS 0 
ANGLE 180 
XY 2597000: 2727000
PROPATTR 1 
PROPVALUE FILLER246
ENDEL 
SREF 
SNAME PFILLER20
STRANS 0 
ANGLE 180 
XY 1820000: 2727000
PROPATTR 1 
PROPVALUE FILLER218
ENDEL 
SREF 
SNAME PFILLER20
STRANS 0 
ANGLE 180 
XY 1840000: 2727000
PROPATTR 1 
PROPVALUE FILLER219
ENDEL 
SREF 
SNAME PFILLER20
STRANS 0 
ANGLE 180 
XY 1860000: 2727000
PROPATTR 1 
PROPVALUE FILLER220
ENDEL 
SREF 
SNAME PFILLER20
STRANS 0 
ANGLE 180 
XY 1960000: 2727000
PROPATTR 1 
PROPVALUE FILLER221
ENDEL 
SREF 
SNAME PFILLER20
STRANS 0 
ANGLE 180 
XY 1980000: 2727000
PROPATTR 1 
PROPVALUE FILLER222
ENDEL 
SREF 
SNAME PFILLER20
STRANS 0 
ANGLE 180 
XY 2000000: 2727000
PROPATTR 1 
PROPVALUE FILLER223
ENDEL 
SREF 
SNAME PFILLER20
STRANS 0 
ANGLE 180 
XY 2020000: 2727000
PROPATTR 1 
PROPVALUE FILLER224
ENDEL 
SREF 
SNAME PFILLER20
STRANS 0 
ANGLE 180 
XY 2040000: 2727000
PROPATTR 1 
PROPVALUE FILLER225
ENDEL 
SREF 
SNAME PFILLER20
STRANS 0 
ANGLE 180 
XY 2060000: 2727000
PROPATTR 1 
PROPVALUE FILLER226
ENDEL 
SREF 
SNAME PAD80L
STRANS 0 
ANGLE 180 
XY 1740000: 2727000
PROPATTR 1 
PROPVALUE PAD_PIN35
ENDEL 
SREF 
SNAME PAD80L
STRANS 0 
ANGLE 180 
XY 1540000: 2727000
PROPATTR 1 
PROPVALUE PAD_PIN36
ENDEL 
SREF 
SNAME PDDWUWSW0204DGZ
STRANS 0 
ANGLE 180 
XY 1940000: 2727000
PROPATTR 1 
PROPVALUE IO_IO22
ENDEL 
SREF 
SNAME PDDWUWSW0204DGZ
STRANS 0 
ANGLE 180 
XY 1740000: 2727000
PROPATTR 1 
PROPVALUE IO_IO23
ENDEL 
SREF 
SNAME PDDWUWSW0204DGZ
STRANS 0 
ANGLE 180 
XY 1540000: 2727000
PROPATTR 1 
PROPVALUE IO_IO24
ENDEL 
SREF 
SNAME PAD80L
STRANS 0 
ANGLE 180 
XY 1940000: 2727000
PROPATTR 1 
PROPVALUE PAD_PIN34
ENDEL 
SREF 
SNAME PFILLER20
STRANS 0 
ANGLE 180 
XY 1420000: 2727000
PROPATTR 1 
PROPVALUE FILLER206
ENDEL 
SREF 
SNAME PFILLER20
STRANS 0 
ANGLE 180 
XY 1440000: 2727000
PROPATTR 1 
PROPVALUE FILLER207
ENDEL 
SREF 
SNAME PFILLER20
STRANS 0 
ANGLE 180 
XY 1460000: 2727000
PROPATTR 1 
PROPVALUE FILLER208
ENDEL 
SREF 
SNAME PFILLER20
STRANS 0 
ANGLE 180 
XY 1560000: 2727000
PROPATTR 1 
PROPVALUE FILLER209
ENDEL 
SREF 
SNAME PFILLER20
STRANS 0 
ANGLE 180 
XY 1580000: 2727000
PROPATTR 1 
PROPVALUE FILLER210
ENDEL 
SREF 
SNAME PFILLER20
STRANS 0 
ANGLE 180 
XY 1600000: 2727000
PROPATTR 1 
PROPVALUE FILLER211
ENDEL 
SREF 
SNAME PFILLER20
STRANS 0 
ANGLE 180 
XY 1620000: 2727000
PROPATTR 1 
PROPVALUE FILLER212
ENDEL 
SREF 
SNAME PFILLER20
STRANS 0 
ANGLE 180 
XY 1640000: 2727000
PROPATTR 1 
PROPVALUE FILLER213
ENDEL 
SREF 
SNAME PFILLER20
STRANS 0 
ANGLE 180 
XY 1660000: 2727000
PROPATTR 1 
PROPVALUE FILLER214
ENDEL 
SREF 
SNAME PFILLER20
STRANS 0 
ANGLE 180 
XY 1760000: 2727000
PROPATTR 1 
PROPVALUE FILLER215
ENDEL 
SREF 
SNAME PFILLER20
STRANS 0 
ANGLE 180 
XY 1780000: 2727000
PROPATTR 1 
PROPVALUE FILLER216
ENDEL 
SREF 
SNAME PFILLER20
STRANS 0 
ANGLE 180 
XY 1800000: 2727000
PROPATTR 1 
PROPVALUE FILLER217
ENDEL 
SREF 
SNAME PAD80L
STRANS 0 
ANGLE 90 
XY 2727000: 1660000
PROPATTR 1 
PROPVALUE PAD_PIN26
ENDEL 
SREF 
SNAME PAD80L
STRANS 0 
ANGLE 90 
XY 2727000: 1860000
PROPATTR 1 
PROPVALUE PAD_PIN27
ENDEL 
SREF 
SNAME PVDD2CDG
STRANS 0 
ANGLE 90 
XY 2727000: 1460000
PROPATTR 1 
PROPVALUE IO_VDDIO2
ENDEL 
SREF 
SNAME PFILLER20
STRANS 0 
ANGLE 90 
XY 2727000: 1400000
PROPATTR 1 
PROPVALUE FILLER124
ENDEL 
SREF 
SNAME PFILLER20
STRANS 0 
ANGLE 90 
XY 2727000: 1420000
PROPATTR 1 
PROPVALUE FILLER125
ENDEL 
SREF 
SNAME PFILLER20
STRANS 0 
ANGLE 90 
XY 2727000: 1440000
PROPATTR 1 
PROPVALUE FILLER126
ENDEL 
SREF 
SNAME PFILLER20
STRANS 0 
ANGLE 90 
XY 2727000: 1540000
PROPATTR 1 
PROPVALUE FILLER127
ENDEL 
SREF 
SNAME PFILLER20
STRANS 0 
ANGLE 90 
XY 2727000: 1560000
PROPATTR 1 
PROPVALUE FILLER128
ENDEL 
SREF 
SNAME PFILLER20
STRANS 0 
ANGLE 90 
XY 2727000: 1580000
PROPATTR 1 
PROPVALUE FILLER129
ENDEL 
SREF 
SNAME PFILLER20
STRANS 0 
ANGLE 90 
XY 2727000: 1600000
PROPATTR 1 
PROPVALUE FILLER130
ENDEL 
SREF 
SNAME PFILLER20
STRANS 0 
ANGLE 90 
XY 2727000: 1620000
PROPATTR 1 
PROPVALUE FILLER131
ENDEL 
SREF 
SNAME PFILLER20
STRANS 0 
ANGLE 90 
XY 2727000: 1640000
PROPATTR 1 
PROPVALUE FILLER132
ENDEL 
SREF 
SNAME PFILLER20
STRANS 0 
ANGLE 90 
XY 2727000: 1740000
PROPATTR 1 
PROPVALUE FILLER133
ENDEL 
SREF 
SNAME PFILLER20
STRANS 0 
ANGLE 90 
XY 2727000: 1760000
PROPATTR 1 
PROPVALUE FILLER134
ENDEL 
SREF 
SNAME PFILLER20
STRANS 0 
ANGLE 90 
XY 2727000: 1780000
PROPATTR 1 
PROPVALUE FILLER135
ENDEL 
SREF 
SNAME PFILLER20
STRANS 0 
ANGLE 90 
XY 2727000: 1800000
PROPATTR 1 
PROPVALUE FILLER136
ENDEL 
SREF 
SNAME PFILLER20
STRANS 0 
ANGLE 90 
XY 2727000: 1820000
PROPATTR 1 
PROPVALUE FILLER137
ENDEL 
SREF 
SNAME PFILLER20
STRANS 0 
ANGLE 90 
XY 2727000: 1840000
PROPATTR 1 
PROPVALUE FILLER138
ENDEL 
SREF 
SNAME PFILLER20
STRANS 0 
ANGLE 90 
XY 2727000: 1940000
PROPATTR 1 
PROPVALUE FILLER139
ENDEL 
SREF 
SNAME PFILLER20
STRANS 0 
ANGLE 90 
XY 2727000: 1960000
PROPATTR 1 
PROPVALUE FILLER140
ENDEL 
SREF 
SNAME PFILLER20
STRANS 0 
ANGLE 90 
XY 2727000: 1980000
PROPATTR 1 
PROPVALUE FILLER141
ENDEL 
SREF 
SNAME PFILLER20
STRANS 0 
ANGLE 90 
XY 2727000: 2000000
PROPATTR 1 
PROPVALUE FILLER142
ENDEL 
SREF 
SNAME PFILLER20
STRANS 0 
ANGLE 90 
XY 2727000: 2020000
PROPATTR 1 
PROPVALUE FILLER143
ENDEL 
SREF 
SNAME PFILLER20
STRANS 0 
ANGLE 90 
XY 2727000: 2040000
PROPATTR 1 
PROPVALUE FILLER144
ENDEL 
SREF 
SNAME PVSS2CDG
STRANS 0 
ANGLE 90 
XY 2727000: 1660000
PROPATTR 1 
PROPVALUE IO_VSSIO2
ENDEL 
SREF 
SNAME PDDWUWSW0204DGZ
STRANS 0 
ANGLE 90 
XY 2727000: 1860000
PROPATTR 1 
PROPVALUE IO_IO15
ENDEL 
SREF 
SNAME PAD80L
STRANS 0 
ANGLE 90 
XY 2727000: 1460000
PROPATTR 1 
PROPVALUE PAD_PIN25
ENDEL 
SREF 
SNAME PDDWUWSW0204DGZ
STRANS 0 
ANGLE 180 
XY 740000: 2727000
PROPATTR 1 
PROPVALUE IO_IO28
ENDEL 
SREF 
SNAME PDDWUWSW0204DGZ
STRANS 0 
ANGLE 270 
XY 73000: 2140000
PROPATTR 1 
PROPVALUE IO_RESET
ENDEL 
SREF 
SNAME PAD80L
STRANS 0 
ANGLE 180 
XY 740000: 2727000
PROPATTR 1 
PROPVALUE PAD_PIN40
ENDEL 
SREF 
SNAME PAD80L
STRANS 0 
ANGLE 270 
XY 73000: 2140000
PROPATTR 1 
PROPVALUE PAD_PIN45
ENDEL 
SREF 
SNAME PFILLER20
STRANS 0 
ANGLE 180 
XY 840000: 2727000
PROPATTR 1 
PROPVALUE FILLER189
ENDEL 
SREF 
SNAME PFILLER20
STRANS 0 
ANGLE 180 
XY 860000: 2727000
PROPATTR 1 
PROPVALUE FILLER190
ENDEL 
SREF 
SNAME PFILLER20
STRANS 0 
ANGLE 180 
XY 960000: 2727000
PROPATTR 1 
PROPVALUE FILLER191
ENDEL 
SREF 
SNAME PFILLER20
STRANS 0 
ANGLE 180 
XY 980000: 2727000
PROPATTR 1 
PROPVALUE FILLER192
ENDEL 
SREF 
SNAME PFILLER20
STRANS 0 
ANGLE 180 
XY 1000000: 2727000
PROPATTR 1 
PROPVALUE FILLER193
ENDEL 
SREF 
SNAME PFILLER20
STRANS 0 
ANGLE 180 
XY 1020000: 2727000
PROPATTR 1 
PROPVALUE FILLER194
ENDEL 
SREF 
SNAME PFILLER20
STRANS 0 
ANGLE 180 
XY 1040000: 2727000
PROPATTR 1 
PROPVALUE FILLER195
ENDEL 
SREF 
SNAME PFILLER20
STRANS 0 
ANGLE 180 
XY 1060000: 2727000
PROPATTR 1 
PROPVALUE FILLER196
ENDEL 
SREF 
SNAME PFILLER20
STRANS 0 
ANGLE 180 
XY 1160000: 2727000
PROPATTR 1 
PROPVALUE FILLER197
ENDEL 
SREF 
SNAME PFILLER20
STRANS 0 
ANGLE 180 
XY 1180000: 2727000
PROPATTR 1 
PROPVALUE FILLER198
ENDEL 
SREF 
SNAME PFILLER20
STRANS 0 
ANGLE 180 
XY 1200000: 2727000
PROPATTR 1 
PROPVALUE FILLER199
ENDEL 
SREF 
SNAME PFILLER20
STRANS 0 
ANGLE 180 
XY 1220000: 2727000
PROPATTR 1 
PROPVALUE FILLER200
ENDEL 
SREF 
SNAME PFILLER20
STRANS 0 
ANGLE 180 
XY 1240000: 2727000
PROPATTR 1 
PROPVALUE FILLER201
ENDEL 
SREF 
SNAME PFILLER20
STRANS 0 
ANGLE 180 
XY 1260000: 2727000
PROPATTR 1 
PROPVALUE FILLER202
ENDEL 
SREF 
SNAME PFILLER20
STRANS 0 
ANGLE 180 
XY 1360000: 2727000
PROPATTR 1 
PROPVALUE FILLER203
ENDEL 
SREF 
SNAME PFILLER20
STRANS 0 
ANGLE 180 
XY 1380000: 2727000
PROPATTR 1 
PROPVALUE FILLER204
ENDEL 
SREF 
SNAME PFILLER20
STRANS 0 
ANGLE 180 
XY 1400000: 2727000
PROPATTR 1 
PROPVALUE FILLER205
ENDEL 
SREF 
SNAME PDDWUWSW0204DGZ
STRANS 0 
ANGLE 180 
XY 1340000: 2727000
PROPATTR 1 
PROPVALUE IO_IO25
ENDEL 
SREF 
SNAME PDDWUWSW0204DGZ
STRANS 0 
ANGLE 180 
XY 1140000: 2727000
PROPATTR 1 
PROPVALUE IO_IO26
ENDEL 
SREF 
SNAME PDDWUWSW0204DGZ
STRANS 0 
ANGLE 180 
XY 940000: 2727000
PROPATTR 1 
PROPVALUE IO_IO27
ENDEL 
SREF 
SNAME PFILLER20
STRANS 0 
ANGLE 180 
XY 760000: 2727000
PROPATTR 1 
PROPVALUE FILLER185
ENDEL 
SREF 
SNAME PAD80L
STRANS 0 
ANGLE 180 
XY 1340000: 2727000
PROPATTR 1 
PROPVALUE PAD_PIN37
ENDEL 
SREF 
SNAME PAD80L
STRANS 0 
ANGLE 180 
XY 1140000: 2727000
PROPATTR 1 
PROPVALUE PAD_PIN38
ENDEL 
SREF 
SNAME PFILLER20
STRANS 0 
ANGLE 180 
XY 780000: 2727000
PROPATTR 1 
PROPVALUE FILLER186
ENDEL 
SREF 
SNAME PAD80L
STRANS 0 
ANGLE 180 
XY 940000: 2727000
PROPATTR 1 
PROPVALUE PAD_PIN39
ENDEL 
SREF 
SNAME PFILLER20
STRANS 0 
ANGLE 180 
XY 800000: 2727000
PROPATTR 1 
PROPVALUE FILLER187
ENDEL 
SREF 
SNAME PFILLER20
STRANS 0 
ANGLE 180 
XY 820000: 2727000
PROPATTR 1 
PROPVALUE FILLER188
ENDEL 
SREF 
SNAME PCORNER
STRANS 0 
ANGLE 270 
XY 73000: 2727000
PROPATTR 1 
PROPVALUE CORNER4
ENDEL 
SREF 
SNAME PFILLER20
STRANS 0 
ANGLE 180 
XY 620000: 2727000
PROPATTR 1 
PROPVALUE FILLER182
ENDEL 
SREF 
SNAME PFILLER20
STRANS 0 
ANGLE 180 
XY 640000: 2727000
PROPATTR 1 
PROPVALUE FILLER183
ENDEL 
SREF 
SNAME PFILLER20
STRANS 0 
ANGLE 180 
XY 660000: 2727000
PROPATTR 1 
PROPVALUE FILLER184
ENDEL 
SREF 
SNAME PDDWUWSW1216DGZ
STRANS 0 
ANGLE 270 
XY 73000: 2340000
PROPATTR 1 
PROPVALUE IO_RX
ENDEL 
SREF 
SNAME PDDWUWSW0204DGZ
STRANS 0 
ANGLE 270 
XY 73000: 2540000
PROPATTR 1 
PROPVALUE IO_TX
ENDEL 
SREF 
SNAME PFILLER20
STRANS 0 
ANGLE 180 
XY 600000: 2727000
PROPATTR 1 
PROPVALUE FILLER181
ENDEL 
SREF 
SNAME PDDWUWSW0204DGZ
STRANS 0 
ANGLE 180 
XY 540000: 2727000
PROPATTR 1 
PROPVALUE IO_IO29
ENDEL 
SREF 
SNAME PAD80L
STRANS 0 
ANGLE 180 
XY 540000: 2727000
PROPATTR 1 
PROPVALUE PAD_PIN41
ENDEL 
SREF 
SNAME PAD80L
STRANS 0 
ANGLE 180 
XY 340000: 2727000
PROPATTR 1 
PROPVALUE PAD_PIN42
ENDEL 
SREF 
SNAME PAD80L
STRANS 0 
ANGLE 270 
XY 73000: 2540000
PROPATTR 1 
PROPVALUE PAD_PIN43
ENDEL 
SREF 
SNAME PAD80L
STRANS 0 
ANGLE 270 
XY 73000: 2340000
PROPATTR 1 
PROPVALUE PAD_PIN44
ENDEL 
SREF 
SNAME PDDWUWSW0204DGZ
STRANS 0 
ANGLE 180 
XY 340000: 2727000
PROPATTR 1 
PROPVALUE IO_IO30
ENDEL 
SREF 
SNAME PFILLER10
STRANS 0 
ANGLE 180 
XY 213000: 2727000
PROPATTR 1 
PROPVALUE FILLER167
ENDEL 
SREF 
SNAME PFILLER20
STRANS 0 
ANGLE 180 
XY 233000: 2727000
PROPATTR 1 
PROPVALUE FILLER168
ENDEL 
SREF 
SNAME PFILLER20
STRANS 0 
ANGLE 180 
XY 253000: 2727000
PROPATTR 1 
PROPVALUE FILLER169
ENDEL 
SREF 
SNAME PFILLER5
STRANS 0 
ANGLE 180 
XY 258000: 2727000
PROPATTR 1 
PROPVALUE FILLER170
ENDEL 
SREF 
SNAME PFILLER1
STRANS 0 
ANGLE 180 
XY 259000: 2727000
PROPATTR 1 
PROPVALUE FILLER171
ENDEL 
SREF 
SNAME PFILLER1
STRANS 0 
ANGLE 180 
XY 260000: 2727000
PROPATTR 1 
PROPVALUE FILLER172
ENDEL 
SREF 
SNAME PFILLER20
STRANS 0 
ANGLE 180 
XY 360000: 2727000
PROPATTR 1 
PROPVALUE FILLER173
ENDEL 
SREF 
SNAME PFILLER20
STRANS 0 
ANGLE 180 
XY 380000: 2727000
PROPATTR 1 
PROPVALUE FILLER174
ENDEL 
SREF 
SNAME PFILLER20
STRANS 0 
ANGLE 180 
XY 400000: 2727000
PROPATTR 1 
PROPVALUE FILLER175
ENDEL 
SREF 
SNAME PFILLER20
STRANS 0 
ANGLE 180 
XY 420000: 2727000
PROPATTR 1 
PROPVALUE FILLER176
ENDEL 
SREF 
SNAME PFILLER20
STRANS 0 
ANGLE 180 
XY 440000: 2727000
PROPATTR 1 
PROPVALUE FILLER177
ENDEL 
SREF 
SNAME PFILLER20
STRANS 0 
ANGLE 180 
XY 460000: 2727000
PROPATTR 1 
PROPVALUE FILLER178
ENDEL 
SREF 
SNAME PFILLER20
STRANS 0 
ANGLE 180 
XY 560000: 2727000
PROPATTR 1 
PROPVALUE FILLER179
ENDEL 
SREF 
SNAME PFILLER20
STRANS 0 
ANGLE 180 
XY 580000: 2727000
PROPATTR 1 
PROPVALUE FILLER180
ENDEL 
SREF 
SNAME PFILLER20
STRANS 0 
ANGLE 270 
XY 73000: 2160000
PROPATTR 1 
PROPVALUE FILLER309
ENDEL 
SREF 
SNAME PFILLER20
STRANS 0 
ANGLE 270 
XY 73000: 2180000
PROPATTR 1 
PROPVALUE FILLER310
ENDEL 
SREF 
SNAME PFILLER20
STRANS 0 
ANGLE 270 
XY 73000: 2200000
PROPATTR 1 
PROPVALUE FILLER311
ENDEL 
SREF 
SNAME PFILLER20
STRANS 0 
ANGLE 270 
XY 73000: 2220000
PROPATTR 1 
PROPVALUE FILLER312
ENDEL 
SREF 
SNAME PFILLER20
STRANS 0 
ANGLE 270 
XY 73000: 2240000
PROPATTR 1 
PROPVALUE FILLER313
ENDEL 
SREF 
SNAME PFILLER20
STRANS 0 
ANGLE 270 
XY 73000: 2260000
PROPATTR 1 
PROPVALUE FILLER314
ENDEL 
SREF 
SNAME PFILLER20
STRANS 0 
ANGLE 270 
XY 73000: 2360000
PROPATTR 1 
PROPVALUE FILLER315
ENDEL 
SREF 
SNAME PFILLER20
STRANS 0 
ANGLE 270 
XY 73000: 2380000
PROPATTR 1 
PROPVALUE FILLER316
ENDEL 
SREF 
SNAME PFILLER20
STRANS 0 
ANGLE 270 
XY 73000: 2400000
PROPATTR 1 
PROPVALUE FILLER317
ENDEL 
SREF 
SNAME PFILLER20
STRANS 0 
ANGLE 270 
XY 73000: 2420000
PROPATTR 1 
PROPVALUE FILLER318
ENDEL 
SREF 
SNAME PFILLER20
STRANS 0 
ANGLE 270 
XY 73000: 2440000
PROPATTR 1 
PROPVALUE FILLER319
ENDEL 
SREF 
SNAME PFILLER20
STRANS 0 
ANGLE 270 
XY 73000: 2460000
PROPATTR 1 
PROPVALUE FILLER320
ENDEL 
SREF 
SNAME PFILLER10
STRANS 0 
ANGLE 270 
XY 73000: 2550000
PROPATTR 1 
PROPVALUE FILLER323
ENDEL 
SREF 
SNAME PFILLER20
STRANS 0 
ANGLE 270 
XY 73000: 2570000
PROPATTR 1 
PROPVALUE FILLER324
ENDEL 
SREF 
SNAME PFILLER20
STRANS 0 
ANGLE 270 
XY 73000: 2590000
PROPATTR 1 
PROPVALUE FILLER325
ENDEL 
SREF 
SNAME PFILLER5
STRANS 0 
ANGLE 270 
XY 73000: 2595000
PROPATTR 1 
PROPVALUE FILLER326
ENDEL 
SREF 
SNAME PFILLER1
STRANS 0 
ANGLE 270 
XY 73000: 2596000
PROPATTR 1 
PROPVALUE FILLER327
ENDEL 
SREF 
SNAME PFILLER1
STRANS 0 
ANGLE 270 
XY 73000: 2597000
PROPATTR 1 
PROPVALUE FILLER328
ENDEL 
SREF 
SNAME PFILLER20
STRANS 0 
ANGLE 270 
XY 73000: 1820000
PROPATTR 1 
PROPVALUE FILLER300
ENDEL 
SREF 
SNAME PFILLER20
STRANS 0 
ANGLE 270 
XY 73000: 1840000
PROPATTR 1 
PROPVALUE FILLER301
ENDEL 
SREF 
SNAME PFILLER20
STRANS 0 
ANGLE 270 
XY 73000: 1860000
PROPATTR 1 
PROPVALUE FILLER302
ENDEL 
SREF 
SNAME PFILLER20
STRANS 0 
ANGLE 270 
XY 73000: 1960000
PROPATTR 1 
PROPVALUE FILLER303
ENDEL 
SREF 
SNAME PFILLER20
STRANS 0 
ANGLE 270 
XY 73000: 1980000
PROPATTR 1 
PROPVALUE FILLER304
ENDEL 
SREF 
SNAME PFILLER20
STRANS 0 
ANGLE 270 
XY 73000: 2000000
PROPATTR 1 
PROPVALUE FILLER305
ENDEL 
SREF 
SNAME PFILLER20
STRANS 0 
ANGLE 270 
XY 73000: 2020000
PROPATTR 1 
PROPVALUE FILLER306
ENDEL 
SREF 
SNAME PFILLER20
STRANS 0 
ANGLE 270 
XY 73000: 2040000
PROPATTR 1 
PROPVALUE FILLER307
ENDEL 
SREF 
SNAME PFILLER20
STRANS 0 
ANGLE 270 
XY 73000: 2060000
PROPATTR 1 
PROPVALUE FILLER308
ENDEL 
SREF 
SNAME PVDD2CDG
STRANS 0 
ANGLE 270 
XY 73000: 1540000
PROPATTR 1 
PROPVALUE IO_VDDIO1
ENDEL 
SREF 
SNAME PAD80L
STRANS 0 
ANGLE 270 
XY 73000: 1940000
PROPATTR 1 
PROPVALUE PAD_PIN46
ENDEL 
SREF 
SNAME PVSS2CDG
STRANS 0 
ANGLE 270 
XY 73000: 1740000
PROPATTR 1 
PROPVALUE IO_VSSIO1
ENDEL 
SREF 
SNAME PAD80L
STRANS 0 
ANGLE 270 
XY 73000: 1740000
PROPATTR 1 
PROPVALUE PAD_PIN47
ENDEL 
SREF 
SNAME PAD80L
STRANS 0 
ANGLE 270 
XY 73000: 1540000
PROPATTR 1 
PROPVALUE PAD_PIN48
ENDEL 
SREF 
SNAME PDDWUWSW1216DGZ
STRANS 0 
ANGLE 270 
XY 73000: 1940000
PROPATTR 1 
PROPVALUE IO_CLK
ENDEL 
SREF 
SNAME PFILLER20
STRANS 0 
ANGLE 270 
XY 73000: 1420000
PROPATTR 1 
PROPVALUE FILLER288
ENDEL 
SREF 
SNAME PFILLER20
STRANS 0 
ANGLE 270 
XY 73000: 1440000
PROPATTR 1 
PROPVALUE FILLER289
ENDEL 
SREF 
SNAME PFILLER20
STRANS 0 
ANGLE 270 
XY 73000: 1460000
PROPATTR 1 
PROPVALUE FILLER290
ENDEL 
SREF 
SNAME PFILLER20
STRANS 0 
ANGLE 270 
XY 73000: 1560000
PROPATTR 1 
PROPVALUE FILLER291
ENDEL 
SREF 
SNAME PFILLER20
STRANS 0 
ANGLE 270 
XY 73000: 1580000
PROPATTR 1 
PROPVALUE FILLER292
ENDEL 
SREF 
SNAME PFILLER20
STRANS 0 
ANGLE 270 
XY 73000: 1600000
PROPATTR 1 
PROPVALUE FILLER293
ENDEL 
SREF 
SNAME PFILLER20
STRANS 0 
ANGLE 270 
XY 73000: 1620000
PROPATTR 1 
PROPVALUE FILLER294
ENDEL 
SREF 
SNAME PFILLER20
STRANS 0 
ANGLE 270 
XY 73000: 1640000
PROPATTR 1 
PROPVALUE FILLER295
ENDEL 
SREF 
SNAME PFILLER20
STRANS 0 
ANGLE 270 
XY 73000: 1660000
PROPATTR 1 
PROPVALUE FILLER296
ENDEL 
SREF 
SNAME PFILLER20
STRANS 0 
ANGLE 270 
XY 73000: 1760000
PROPATTR 1 
PROPVALUE FILLER297
ENDEL 
SREF 
SNAME PFILLER20
STRANS 0 
ANGLE 270 
XY 73000: 1780000
PROPATTR 1 
PROPVALUE FILLER298
ENDEL 
SREF 
SNAME PFILLER20
STRANS 0 
ANGLE 270 
XY 73000: 1800000
PROPATTR 1 
PROPVALUE FILLER299
ENDEL 
SREF 
SNAME PDDWUWSW0204DGZ
XY 660000: 73000
PROPATTR 1 
PROPVALUE IO_IO1
ENDEL 
SREF 
SNAME PAD80L
XY 660000: 73000
PROPATTR 1 
PROPVALUE PAD_PIN9
ENDEL 
SREF 
SNAME PAD80L
STRANS 0 
ANGLE 270 
XY 73000: 740000
PROPATTR 1 
PROPVALUE PAD_PIN4
ENDEL 
SREF 
SNAME PDDWUWSW0204DGZ
STRANS 0 
ANGLE 270 
XY 73000: 740000
PROPATTR 1 
PROPVALUE IO_TMS
ENDEL 
SREF 
SNAME PFILLER20
STRANS 0 
ANGLE 270 
XY 73000: 840000
PROPATTR 1 
PROPVALUE FILLER271
ENDEL 
SREF 
SNAME PFILLER20
STRANS 0 
ANGLE 270 
XY 73000: 860000
PROPATTR 1 
PROPVALUE FILLER272
ENDEL 
SREF 
SNAME PFILLER20
STRANS 0 
ANGLE 270 
XY 73000: 960000
PROPATTR 1 
PROPVALUE FILLER273
ENDEL 
SREF 
SNAME PFILLER20
STRANS 0 
ANGLE 270 
XY 73000: 980000
PROPATTR 1 
PROPVALUE FILLER274
ENDEL 
SREF 
SNAME PFILLER20
STRANS 0 
ANGLE 270 
XY 73000: 1000000
PROPATTR 1 
PROPVALUE FILLER275
ENDEL 
SREF 
SNAME PFILLER20
STRANS 0 
ANGLE 270 
XY 73000: 1020000
PROPATTR 1 
PROPVALUE FILLER276
ENDEL 
SREF 
SNAME PFILLER20
STRANS 0 
ANGLE 270 
XY 73000: 1040000
PROPATTR 1 
PROPVALUE FILLER277
ENDEL 
SREF 
SNAME PFILLER20
STRANS 0 
ANGLE 270 
XY 73000: 1060000
PROPATTR 1 
PROPVALUE FILLER278
ENDEL 
SREF 
SNAME PFILLER20
STRANS 0 
ANGLE 270 
XY 73000: 1160000
PROPATTR 1 
PROPVALUE FILLER279
ENDEL 
SREF 
SNAME PFILLER20
STRANS 0 
ANGLE 270 
XY 73000: 1180000
PROPATTR 1 
PROPVALUE FILLER280
ENDEL 
SREF 
SNAME PFILLER20
STRANS 0 
ANGLE 270 
XY 73000: 1200000
PROPATTR 1 
PROPVALUE FILLER281
ENDEL 
SREF 
SNAME PFILLER20
STRANS 0 
ANGLE 270 
XY 73000: 1220000
PROPATTR 1 
PROPVALUE FILLER282
ENDEL 
SREF 
SNAME PFILLER20
STRANS 0 
ANGLE 270 
XY 73000: 1240000
PROPATTR 1 
PROPVALUE FILLER283
ENDEL 
SREF 
SNAME PFILLER20
STRANS 0 
ANGLE 270 
XY 73000: 1260000
PROPATTR 1 
PROPVALUE FILLER284
ENDEL 
SREF 
SNAME PFILLER20
STRANS 0 
ANGLE 270 
XY 73000: 1360000
PROPATTR 1 
PROPVALUE FILLER285
ENDEL 
SREF 
SNAME PFILLER20
STRANS 0 
ANGLE 270 
XY 73000: 1380000
PROPATTR 1 
PROPVALUE FILLER286
ENDEL 
SREF 
SNAME PFILLER20
STRANS 0 
ANGLE 270 
XY 73000: 1400000
PROPATTR 1 
PROPVALUE FILLER287
ENDEL 
SREF 
SNAME PFILLER20
STRANS 0 
ANGLE 270 
XY 73000: 760000
PROPATTR 1 
PROPVALUE FILLER267
ENDEL 
SREF 
SNAME PFILLER20
STRANS 0 
ANGLE 270 
XY 73000: 780000
PROPATTR 1 
PROPVALUE FILLER268
ENDEL 
SREF 
SNAME PVDD1CDG
STRANS 0 
ANGLE 270 
XY 73000: 1340000
PROPATTR 1 
PROPVALUE IO_VDDCORE1
ENDEL 
SREF 
SNAME PVSS1CDG
STRANS 0 
ANGLE 270 
XY 73000: 1140000
PROPATTR 1 
PROPVALUE IO_VSSCORE1
ENDEL 
SREF 
SNAME PAD80L
STRANS 0 
ANGLE 270 
XY 73000: 1340000
PROPATTR 1 
PROPVALUE PAD_PIN1
ENDEL 
SREF 
SNAME PAD80L
STRANS 0 
ANGLE 270 
XY 73000: 1140000
PROPATTR 1 
PROPVALUE PAD_PIN2
ENDEL 
SREF 
SNAME PAD80L
STRANS 0 
ANGLE 270 
XY 73000: 940000
PROPATTR 1 
PROPVALUE PAD_PIN3
ENDEL 
SREF 
SNAME PFILLER20
STRANS 0 
ANGLE 270 
XY 73000: 800000
PROPATTR 1 
PROPVALUE FILLER269
ENDEL 
SREF 
SNAME PDDWUWSW0204DGZ
STRANS 0 
ANGLE 270 
XY 73000: 940000
PROPATTR 1 
PROPVALUE IO_TCK
ENDEL 
SREF 
SNAME PFILLER20
STRANS 0 
ANGLE 270 
XY 73000: 820000
PROPATTR 1 
PROPVALUE FILLER270
ENDEL 
SREF 
SNAME PFILLER20
STRANS 0 
ANGLE 270 
XY 73000: 640000
PROPATTR 1 
PROPVALUE FILLER265
ENDEL 
SREF 
SNAME PFILLER20
STRANS 0 
ANGLE 270 
XY 73000: 660000
PROPATTR 1 
PROPVALUE FILLER266
ENDEL 
SREF 
SNAME PFILLER5
XY 253000: 73000
PROPATTR 1 
PROPVALUE FILLER6
ENDEL 
SREF 
SNAME PFILLER1
XY 258000: 73000
PROPATTR 1 
PROPVALUE FILLER7
ENDEL 
SREF 
SNAME PFILLER1
XY 259000: 73000
PROPATTR 1 
PROPVALUE FILLER8
ENDEL 
SREF 
SNAME PFILLER20
XY 340000: 73000
PROPATTR 1 
PROPVALUE FILLER9
ENDEL 
SREF 
SNAME PFILLER20
XY 360000: 73000
PROPATTR 1 
PROPVALUE FILLER10
ENDEL 
SREF 
SNAME PFILLER20
XY 380000: 73000
PROPATTR 1 
PROPVALUE FILLER11
ENDEL 
SREF 
SNAME PFILLER20
XY 400000: 73000
PROPATTR 1 
PROPVALUE FILLER12
ENDEL 
SREF 
SNAME PFILLER20
XY 420000: 73000
PROPATTR 1 
PROPVALUE FILLER13
ENDEL 
SREF 
SNAME PFILLER20
XY 440000: 73000
PROPATTR 1 
PROPVALUE FILLER14
ENDEL 
SREF 
SNAME PFILLER20
XY 540000: 73000
PROPATTR 1 
PROPVALUE FILLER15
ENDEL 
SREF 
SNAME PFILLER20
XY 560000: 73000
PROPATTR 1 
PROPVALUE FILLER16
ENDEL 
SREF 
SNAME PFILLER20
XY 580000: 73000
PROPATTR 1 
PROPVALUE FILLER17
ENDEL 
SREF 
SNAME PFILLER20
XY 600000: 73000
PROPATTR 1 
PROPVALUE FILLER18
ENDEL 
SREF 
SNAME PFILLER20
XY 620000: 73000
PROPATTR 1 
PROPVALUE FILLER19
ENDEL 
SREF 
SNAME PFILLER20
XY 640000: 73000
PROPATTR 1 
PROPVALUE FILLER20
ENDEL 
SREF 
SNAME PFILLER10
STRANS 0 
ANGLE 270 
XY 73000: 213000
PROPATTR 1 
PROPVALUE FILLER249
ENDEL 
SREF 
SNAME PFILLER20
STRANS 0 
ANGLE 270 
XY 73000: 233000
PROPATTR 1 
PROPVALUE FILLER250
ENDEL 
SREF 
SNAME PFILLER20
STRANS 0 
ANGLE 270 
XY 73000: 253000
PROPATTR 1 
PROPVALUE FILLER251
ENDEL 
SREF 
SNAME PFILLER5
STRANS 0 
ANGLE 270 
XY 73000: 258000
PROPATTR 1 
PROPVALUE FILLER252
ENDEL 
SREF 
SNAME PFILLER1
STRANS 0 
ANGLE 270 
XY 73000: 259000
PROPATTR 1 
PROPVALUE FILLER253
ENDEL 
SREF 
SNAME PFILLER1
STRANS 0 
ANGLE 270 
XY 73000: 260000
PROPATTR 1 
PROPVALUE FILLER254
ENDEL 
SREF 
SNAME PAD80L
XY 460000: 73000
PROPATTR 1 
PROPVALUE PAD_PIN8
ENDEL 
SREF 
SNAME PDDWUWSW0204DGZ
XY 460000: 73000
PROPATTR 1 
PROPVALUE IO_IO0
ENDEL 
SREF 
SNAME PFILLER20
STRANS 0 
ANGLE 270 
XY 73000: 360000
PROPATTR 1 
PROPVALUE FILLER255
ENDEL 
SREF 
SNAME PFILLER20
STRANS 0 
ANGLE 270 
XY 73000: 380000
PROPATTR 1 
PROPVALUE FILLER256
ENDEL 
SREF 
SNAME PFILLER20
STRANS 0 
ANGLE 270 
XY 73000: 400000
PROPATTR 1 
PROPVALUE FILLER257
ENDEL 
SREF 
SNAME PFILLER20
STRANS 0 
ANGLE 270 
XY 73000: 420000
PROPATTR 1 
PROPVALUE FILLER258
ENDEL 
SREF 
SNAME PFILLER20
STRANS 0 
ANGLE 270 
XY 73000: 440000
PROPATTR 1 
PROPVALUE FILLER259
ENDEL 
SREF 
SNAME PFILLER20
STRANS 0 
ANGLE 270 
XY 73000: 460000
PROPATTR 1 
PROPVALUE FILLER260
ENDEL 
SREF 
SNAME PFILLER20
STRANS 0 
ANGLE 270 
XY 73000: 560000
PROPATTR 1 
PROPVALUE FILLER261
ENDEL 
SREF 
SNAME PFILLER20
STRANS 0 
ANGLE 270 
XY 73000: 580000
PROPATTR 1 
PROPVALUE FILLER262
ENDEL 
SREF 
SNAME PFILLER20
STRANS 0 
ANGLE 270 
XY 73000: 600000
PROPATTR 1 
PROPVALUE FILLER263
ENDEL 
SREF 
SNAME PFILLER20
STRANS 0 
ANGLE 270 
XY 73000: 620000
PROPATTR 1 
PROPVALUE FILLER264
ENDEL 
SREF 
SNAME PDDWUWSW0204DGZ
STRANS 0 
ANGLE 270 
XY 73000: 540000
PROPATTR 1 
PROPVALUE IO_TDI
ENDEL 
SREF 
SNAME PDDWUWSW0204DGZ
STRANS 0 
ANGLE 270 
XY 73000: 340000
PROPATTR 1 
PROPVALUE IO_TDO
ENDEL 
SREF 
SNAME PDDWUWSW0204DGZ
XY 260000: 73000
PROPATTR 1 
PROPVALUE IO_TRST_N
ENDEL 
SREF 
SNAME PAD80L
STRANS 0 
ANGLE 270 
XY 73000: 540000
PROPATTR 1 
PROPVALUE PAD_PIN5
ENDEL 
SREF 
SNAME PCORNER
XY 73000: 73000
PROPATTR 1 
PROPVALUE CORNER1
ENDEL 
SREF 
SNAME PAD80L
STRANS 0 
ANGLE 270 
XY 73000: 340000
PROPATTR 1 
PROPVALUE PAD_PIN6
ENDEL 
SREF 
SNAME PAD80L
XY 260000: 73000
PROPATTR 1 
PROPVALUE PAD_PIN7
ENDEL 
SREF 
SNAME PFILLER10
XY 203000: 73000
PROPATTR 1 
PROPVALUE FILLER3
ENDEL 
SREF 
SNAME PFILLER20
XY 213000: 73000
PROPATTR 1 
PROPVALUE FILLER4
ENDEL 
SREF 
SNAME PFILLER20
XY 233000: 73000
PROPATTR 1 
PROPVALUE FILLER5
ENDEL 
SREF 
SNAME PFILLER20
XY 740000: 73000
PROPATTR 1 
PROPVALUE FILLER21
ENDEL 
SREF 
SNAME PFILLER20
XY 760000: 73000
PROPATTR 1 
PROPVALUE FILLER22
ENDEL 
SREF 
SNAME PDDWUWSW0204DGZ
XY 860000: 73000
PROPATTR 1 
PROPVALUE IO_IO2
ENDEL 
SREF 
SNAME PDDWUWSW0204DGZ
XY 1060000: 73000
PROPATTR 1 
PROPVALUE IO_IO3
ENDEL 
SREF 
SNAME PDDWUWSW0204DGZ
XY 1260000: 73000
PROPATTR 1 
PROPVALUE IO_IO4
ENDEL 
SREF 
SNAME PFILLER20
XY 780000: 73000
PROPATTR 1 
PROPVALUE FILLER23
ENDEL 
SREF 
SNAME PAD80L
XY 860000: 73000
PROPATTR 1 
PROPVALUE PAD_PIN10
ENDEL 
SREF 
SNAME PAD80L
XY 1060000: 73000
PROPATTR 1 
PROPVALUE PAD_PIN11
ENDEL 
SREF 
SNAME PAD80L
XY 1260000: 73000
PROPATTR 1 
PROPVALUE PAD_PIN12
ENDEL 
SREF 
SNAME PFILLER20
XY 800000: 73000
PROPATTR 1 
PROPVALUE FILLER24
ENDEL 
SREF 
SNAME PFILLER20
XY 820000: 73000
PROPATTR 1 
PROPVALUE FILLER25
ENDEL 
SREF 
SNAME PFILLER20
XY 840000: 73000
PROPATTR 1 
PROPVALUE FILLER26
ENDEL 
SREF 
SNAME PFILLER20
XY 940000: 73000
PROPATTR 1 
PROPVALUE FILLER27
ENDEL 
SREF 
SNAME PFILLER20
XY 960000: 73000
PROPATTR 1 
PROPVALUE FILLER28
ENDEL 
SREF 
SNAME PFILLER20
XY 980000: 73000
PROPATTR 1 
PROPVALUE FILLER29
ENDEL 
SREF 
SNAME PFILLER20
XY 1020000: 73000
PROPATTR 1 
PROPVALUE FILLER31
ENDEL 
SREF 
SNAME PFILLER20
XY 1040000: 73000
PROPATTR 1 
PROPVALUE FILLER32
ENDEL 
SREF 
SNAME PFILLER20
XY 1140000: 73000
PROPATTR 1 
PROPVALUE FILLER33
ENDEL 
SREF 
SNAME PFILLER20
XY 1160000: 73000
PROPATTR 1 
PROPVALUE FILLER34
ENDEL 
SREF 
SNAME PFILLER20
XY 1180000: 73000
PROPATTR 1 
PROPVALUE FILLER35
ENDEL 
SREF 
SNAME PFILLER20
XY 1200000: 73000
PROPATTR 1 
PROPVALUE FILLER36
ENDEL 
SREF 
SNAME PFILLER20
XY 1220000: 73000
PROPATTR 1 
PROPVALUE FILLER37
ENDEL 
SREF 
SNAME PFILLER20
XY 1240000: 73000
PROPATTR 1 
PROPVALUE FILLER38
ENDEL 
SREF 
SNAME PFILLER20
XY 1340000: 73000
PROPATTR 1 
PROPVALUE FILLER39
ENDEL 
SREF 
SNAME PFILLER20
XY 1360000: 73000
PROPATTR 1 
PROPVALUE FILLER40
ENDEL 
SREF 
SNAME PFILLER20
XY 1380000: 73000
PROPATTR 1 
PROPVALUE FILLER41
ENDEL 
SREF 
SNAME PFILLER20
XY 1000000: 73000
PROPATTR 1 
PROPVALUE FILLER30
ENDEL 
SREF 
SNAME PAD80L
XY 2060000: 73000
PROPATTR 1 
PROPVALUE PAD_PIN16
ENDEL 
SREF 
SNAME PDDWUWSW0204DGZ
XY 2060000: 73000
PROPATTR 1 
PROPVALUE IO_IO8
ENDEL 
SREF 
SNAME PDDWUWSW0204DGZ
STRANS 0 
ANGLE 90 
XY 2727000: 660000
PROPATTR 1 
PROPVALUE IO_IO13
ENDEL 
SREF 
SNAME PAD80L
STRANS 0 
ANGLE 90 
XY 2727000: 660000
PROPATTR 1 
PROPVALUE PAD_PIN21
ENDEL 
SREF 
SNAME PFILLER20
STRANS 0 
ANGLE 90 
XY 2727000: 1180000
PROPATTR 1 
PROPVALUE FILLER117
ENDEL 
SREF 
SNAME PFILLER20
STRANS 0 
ANGLE 90 
XY 2727000: 1200000
PROPATTR 1 
PROPVALUE FILLER118
ENDEL 
SREF 
SNAME PFILLER20
STRANS 0 
ANGLE 90 
XY 2727000: 1220000
PROPATTR 1 
PROPVALUE FILLER119
ENDEL 
SREF 
SNAME PFILLER20
STRANS 0 
ANGLE 90 
XY 2727000: 1240000
PROPATTR 1 
PROPVALUE FILLER120
ENDEL 
SREF 
SNAME PFILLER20
STRANS 0 
ANGLE 90 
XY 2727000: 1340000
PROPATTR 1 
PROPVALUE FILLER121
ENDEL 
SREF 
SNAME PFILLER20
STRANS 0 
ANGLE 90 
XY 2727000: 1360000
PROPATTR 1 
PROPVALUE FILLER122
ENDEL 
SREF 
SNAME PFILLER20
STRANS 0 
ANGLE 90 
XY 2727000: 1380000
PROPATTR 1 
PROPVALUE FILLER123
ENDEL 
SREF 
SNAME PFILLER20
STRANS 0 
ANGLE 90 
XY 2727000: 1020000
PROPATTR 1 
PROPVALUE FILLER113
ENDEL 
SREF 
SNAME PVDD1CDG
STRANS 0 
ANGLE 90 
XY 2727000: 1260000
PROPATTR 1 
PROPVALUE IO_VDDCORE2
ENDEL 
SREF 
SNAME PVSS1CDG
STRANS 0 
ANGLE 90 
XY 2727000: 1060000
PROPATTR 1 
PROPVALUE IO_VSSCORE2
ENDEL 
SREF 
SNAME PFILLER20
STRANS 0 
ANGLE 90 
XY 2727000: 1040000
PROPATTR 1 
PROPVALUE FILLER114
ENDEL 
SREF 
SNAME PFILLER20
STRANS 0 
ANGLE 90 
XY 2727000: 1140000
PROPATTR 1 
PROPVALUE FILLER115
ENDEL 
SREF 
SNAME PDDWUWSW0204DGZ
STRANS 0 
ANGLE 90 
XY 2727000: 860000
PROPATTR 1 
PROPVALUE IO_IO14
ENDEL 
SREF 
SNAME PFILLER20
STRANS 0 
ANGLE 90 
XY 2727000: 1160000
PROPATTR 1 
PROPVALUE FILLER116
ENDEL 
SREF 
SNAME PAD80L
STRANS 0 
ANGLE 90 
XY 2727000: 860000
PROPATTR 1 
PROPVALUE PAD_PIN22
ENDEL 
SREF 
SNAME PAD80L
STRANS 0 
ANGLE 90 
XY 2727000: 1060000
PROPATTR 1 
PROPVALUE PAD_PIN23
ENDEL 
SREF 
SNAME PAD80L
STRANS 0 
ANGLE 90 
XY 2727000: 1260000
PROPATTR 1 
PROPVALUE PAD_PIN24
ENDEL 
SREF 
SNAME PFILLER20
STRANS 0 
ANGLE 90 
XY 2727000: 740000
PROPATTR 1 
PROPVALUE FILLER103
ENDEL 
SREF 
SNAME PFILLER20
STRANS 0 
ANGLE 90 
XY 2727000: 760000
PROPATTR 1 
PROPVALUE FILLER104
ENDEL 
SREF 
SNAME PFILLER20
STRANS 0 
ANGLE 90 
XY 2727000: 780000
PROPATTR 1 
PROPVALUE FILLER105
ENDEL 
SREF 
SNAME PFILLER20
STRANS 0 
ANGLE 90 
XY 2727000: 800000
PROPATTR 1 
PROPVALUE FILLER106
ENDEL 
SREF 
SNAME PFILLER20
STRANS 0 
ANGLE 90 
XY 2727000: 820000
PROPATTR 1 
PROPVALUE FILLER107
ENDEL 
SREF 
SNAME PFILLER20
STRANS 0 
ANGLE 90 
XY 2727000: 840000
PROPATTR 1 
PROPVALUE FILLER108
ENDEL 
SREF 
SNAME PFILLER20
STRANS 0 
ANGLE 90 
XY 2727000: 940000
PROPATTR 1 
PROPVALUE FILLER109
ENDEL 
SREF 
SNAME PFILLER20
STRANS 0 
ANGLE 90 
XY 2727000: 960000
PROPATTR 1 
PROPVALUE FILLER110
ENDEL 
SREF 
SNAME PFILLER20
STRANS 0 
ANGLE 90 
XY 2727000: 980000
PROPATTR 1 
PROPVALUE FILLER111
ENDEL 
SREF 
SNAME PFILLER20
STRANS 0 
ANGLE 90 
XY 2727000: 1000000
PROPATTR 1 
PROPVALUE FILLER112
ENDEL 
SREF 
SNAME PFILLER20
XY 1560000: 73000
PROPATTR 1 
PROPVALUE FILLER46
ENDEL 
SREF 
SNAME PFILLER20
XY 1580000: 73000
PROPATTR 1 
PROPVALUE FILLER47
ENDEL 
SREF 
SNAME PFILLER20
XY 1600000: 73000
PROPATTR 1 
PROPVALUE FILLER48
ENDEL 
SREF 
SNAME PFILLER20
XY 1620000: 73000
PROPATTR 1 
PROPVALUE FILLER49
ENDEL 
SREF 
SNAME PFILLER20
XY 1640000: 73000
PROPATTR 1 
PROPVALUE FILLER50
ENDEL 
SREF 
SNAME PFILLER20
XY 1740000: 73000
PROPATTR 1 
PROPVALUE FILLER51
ENDEL 
SREF 
SNAME PFILLER20
XY 1760000: 73000
PROPATTR 1 
PROPVALUE FILLER52
ENDEL 
SREF 
SNAME PFILLER20
XY 1780000: 73000
PROPATTR 1 
PROPVALUE FILLER53
ENDEL 
SREF 
SNAME PFILLER20
XY 1800000: 73000
PROPATTR 1 
PROPVALUE FILLER54
ENDEL 
SREF 
SNAME PFILLER20
XY 1820000: 73000
PROPATTR 1 
PROPVALUE FILLER55
ENDEL 
SREF 
SNAME PFILLER20
XY 1840000: 73000
PROPATTR 1 
PROPVALUE FILLER56
ENDEL 
SREF 
SNAME PFILLER20
XY 1940000: 73000
PROPATTR 1 
PROPVALUE FILLER57
ENDEL 
SREF 
SNAME PFILLER20
XY 1960000: 73000
PROPATTR 1 
PROPVALUE FILLER58
ENDEL 
SREF 
SNAME PFILLER20
XY 1980000: 73000
PROPATTR 1 
PROPVALUE FILLER59
ENDEL 
SREF 
SNAME PFILLER20
XY 2000000: 73000
PROPATTR 1 
PROPVALUE FILLER60
ENDEL 
SREF 
SNAME PFILLER20
XY 2020000: 73000
PROPATTR 1 
PROPVALUE FILLER61
ENDEL 
SREF 
SNAME PFILLER20
XY 2040000: 73000
PROPATTR 1 
PROPVALUE FILLER62
ENDEL 
SREF 
SNAME PDDWUWSW0204DGZ
XY 1660000: 73000
PROPATTR 1 
PROPVALUE IO_IO6
ENDEL 
SREF 
SNAME PDDWUWSW0204DGZ
XY 1860000: 73000
PROPATTR 1 
PROPVALUE IO_IO7
ENDEL 
SREF 
SNAME PDDWUWSW0204DGZ
XY 1460000: 73000
PROPATTR 1 
PROPVALUE IO_IO5
ENDEL 
SREF 
SNAME PAD80L
XY 1460000: 73000
PROPATTR 1 
PROPVALUE PAD_PIN13
ENDEL 
SREF 
SNAME PAD80L
XY 1660000: 73000
PROPATTR 1 
PROPVALUE PAD_PIN14
ENDEL 
SREF 
SNAME PAD80L
XY 1860000: 73000
PROPATTR 1 
PROPVALUE PAD_PIN15
ENDEL 
SREF 
SNAME PFILLER20
XY 1400000: 73000
PROPATTR 1 
PROPVALUE FILLER42
ENDEL 
SREF 
SNAME PFILLER20
XY 1420000: 73000
PROPATTR 1 
PROPVALUE FILLER43
ENDEL 
SREF 
SNAME PFILLER20
XY 1440000: 73000
PROPATTR 1 
PROPVALUE FILLER44
ENDEL 
SREF 
SNAME PFILLER20
XY 1540000: 73000
PROPATTR 1 
PROPVALUE FILLER45
ENDEL 
SREF 
SNAME PFILLER20
XY 2160000: 73000
PROPATTR 1 
PROPVALUE FILLER64
ENDEL 
SREF 
SNAME PFILLER20
XY 2180000: 73000
PROPATTR 1 
PROPVALUE FILLER65
ENDEL 
SREF 
SNAME PFILLER20
XY 2200000: 73000
PROPATTR 1 
PROPVALUE FILLER66
ENDEL 
SREF 
SNAME PFILLER20
XY 2220000: 73000
PROPATTR 1 
PROPVALUE FILLER67
ENDEL 
SREF 
SNAME PFILLER20
XY 2240000: 73000
PROPATTR 1 
PROPVALUE FILLER68
ENDEL 
SREF 
SNAME PFILLER20
XY 2340000: 73000
PROPATTR 1 
PROPVALUE FILLER69
ENDEL 
SREF 
SNAME PFILLER20
XY 2360000: 73000
PROPATTR 1 
PROPVALUE FILLER70
ENDEL 
SREF 
SNAME PFILLER20
XY 2380000: 73000
PROPATTR 1 
PROPVALUE FILLER71
ENDEL 
SREF 
SNAME PFILLER20
XY 2400000: 73000
PROPATTR 1 
PROPVALUE FILLER72
ENDEL 
SREF 
SNAME PFILLER20
XY 2420000: 73000
PROPATTR 1 
PROPVALUE FILLER73
ENDEL 
SREF 
SNAME PFILLER20
XY 2440000: 73000
PROPATTR 1 
PROPVALUE FILLER74
ENDEL 
SREF 
SNAME PFILLER10
XY 2540000: 73000
PROPATTR 1 
PROPVALUE FILLER77
ENDEL 
SREF 
SNAME PFILLER20
XY 2550000: 73000
PROPATTR 1 
PROPVALUE FILLER78
ENDEL 
SREF 
SNAME PFILLER20
XY 2570000: 73000
PROPATTR 1 
PROPVALUE FILLER79
ENDEL 
SREF 
SNAME PFILLER5
XY 2590000: 73000
PROPATTR 1 
PROPVALUE FILLER80
ENDEL 
SREF 
SNAME PFILLER1
XY 2595000: 73000
PROPATTR 1 
PROPVALUE FILLER81
ENDEL 
SREF 
SNAME PFILLER1
XY 2596000: 73000
PROPATTR 1 
PROPVALUE FILLER82
ENDEL 
SREF 
SNAME PFILLER10
STRANS 0 
ANGLE 90 
XY 2727000: 203000
PROPATTR 1 
PROPVALUE FILLER85
ENDEL 
SREF 
SNAME PFILLER20
STRANS 0 
ANGLE 90 
XY 2727000: 213000
PROPATTR 1 
PROPVALUE FILLER86
ENDEL 
SREF 
SNAME PFILLER20
STRANS 0 
ANGLE 90 
XY 2727000: 233000
PROPATTR 1 
PROPVALUE FILLER87
ENDEL 
SREF 
SNAME PFILLER5
STRANS 0 
ANGLE 90 
XY 2727000: 253000
PROPATTR 1 
PROPVALUE FILLER88
ENDEL 
SREF 
SNAME PFILLER1
STRANS 0 
ANGLE 90 
XY 2727000: 258000
PROPATTR 1 
PROPVALUE FILLER89
ENDEL 
SREF 
SNAME PFILLER1
STRANS 0 
ANGLE 90 
XY 2727000: 259000
PROPATTR 1 
PROPVALUE FILLER90
ENDEL 
SREF 
SNAME PFILLER20
STRANS 0 
ANGLE 90 
XY 2727000: 340000
PROPATTR 1 
PROPVALUE FILLER91
ENDEL 
SREF 
SNAME PFILLER20
STRANS 0 
ANGLE 90 
XY 2727000: 360000
PROPATTR 1 
PROPVALUE FILLER92
ENDEL 
SREF 
SNAME PFILLER20
STRANS 0 
ANGLE 90 
XY 2727000: 380000
PROPATTR 1 
PROPVALUE FILLER93
ENDEL 
SREF 
SNAME PFILLER20
STRANS 0 
ANGLE 90 
XY 2727000: 400000
PROPATTR 1 
PROPVALUE FILLER94
ENDEL 
SREF 
SNAME PFILLER20
STRANS 0 
ANGLE 90 
XY 2727000: 420000
PROPATTR 1 
PROPVALUE FILLER95
ENDEL 
SREF 
SNAME PFILLER20
STRANS 0 
ANGLE 90 
XY 2727000: 440000
PROPATTR 1 
PROPVALUE FILLER96
ENDEL 
SREF 
SNAME PFILLER20
STRANS 0 
ANGLE 90 
XY 2727000: 540000
PROPATTR 1 
PROPVALUE FILLER97
ENDEL 
SREF 
SNAME PFILLER20
STRANS 0 
ANGLE 90 
XY 2727000: 560000
PROPATTR 1 
PROPVALUE FILLER98
ENDEL 
SREF 
SNAME PFILLER20
STRANS 0 
ANGLE 90 
XY 2727000: 580000
PROPATTR 1 
PROPVALUE FILLER99
ENDEL 
SREF 
SNAME PFILLER20
STRANS 0 
ANGLE 90 
XY 2727000: 600000
PROPATTR 1 
PROPVALUE FILLER100
ENDEL 
SREF 
SNAME PFILLER20
STRANS 0 
ANGLE 90 
XY 2727000: 620000
PROPATTR 1 
PROPVALUE FILLER101
ENDEL 
SREF 
SNAME PFILLER20
STRANS 0 
ANGLE 90 
XY 2727000: 640000
PROPATTR 1 
PROPVALUE FILLER102
ENDEL 
SREF 
SNAME PDDWUWSW0204DGZ
XY 2260000: 73000
PROPATTR 1 
PROPVALUE IO_IO9
ENDEL 
SREF 
SNAME PDDWUWSW0204DGZ
XY 2460000: 73000
PROPATTR 1 
PROPVALUE IO_IO10
ENDEL 
SREF 
SNAME PDDWUWSW0204DGZ
STRANS 0 
ANGLE 90 
XY 2727000: 260000
PROPATTR 1 
PROPVALUE IO_IO11
ENDEL 
SREF 
SNAME PDDWUWSW0204DGZ
STRANS 0 
ANGLE 90 
XY 2727000: 460000
PROPATTR 1 
PROPVALUE IO_IO12
ENDEL 
SREF 
SNAME PAD80L
XY 2260000: 73000
PROPATTR 1 
PROPVALUE PAD_PIN17
ENDEL 
SREF 
SNAME PCORNER
STRANS 0 
ANGLE 90 
XY 2727000: 73000
PROPATTR 1 
PROPVALUE CORNER2
ENDEL 
SREF 
SNAME PAD80L
STRANS 0 
ANGLE 90 
XY 2727000: 260000
PROPATTR 1 
PROPVALUE PAD_PIN19
ENDEL 
SREF 
SNAME PAD80L
STRANS 0 
ANGLE 90 
XY 2727000: 460000
PROPATTR 1 
PROPVALUE PAD_PIN20
ENDEL 
SREF 
SNAME PAD80L
XY 2460000: 73000
PROPATTR 1 
PROPVALUE PAD_PIN18
ENDEL 
SREF 
SNAME PFILLER20
XY 2140000: 73000
PROPATTR 1 
PROPVALUE FILLER63
ENDEL 
ENDSTR 
